module domsch/diskusage

go 1.20

require github.com/shirou/gopsutil v3.21.11+incompatible

require (
	github.com/go-ole/go-ole v1.2.6 // indirect
	github.com/yusufpapurcu/wmi v1.2.3 // indirect
	golang.org/x/sys v0.10.0 // indirect
)
